<?xml version="1.0" standalone="no"?>
<!DOCTYPE svg PUBLIC "-//W3C//DTD SVG 1.1//EN" "http://www.w3.org/Graphics/SVG/1.1/DTD/svg11.dtd">
<svg xmlns="http://www.w3.org/2000/svg">
<metadata>Generated by Fontastic.me</metadata>
<defs>
<font id="nerveseventsicons" horiz-adv-x="512">
<font-face font-family="nerveseventsicons" units-per-em="512" ascent="480" descent="-32"/>
<missing-glyph horiz-adv-x="512" />

<glyph glyph-name="x" unicode="&#99;" d="M434 160l-96 96 96 96c4 4 4 10 0 14l-68 68c-4 4-10 4-14 0l-96-96-96 96c-4 4-11 4-14 0l-68-68c-2-1-3-4-3-7 0-2 1-5 3-7l96-96-96-96c-2-2-3-5-3-7 0-3 1-6 3-7l68-68c1-2 4-3 7-3 2 0 5 1 7 3l96 96 96-96c2-2 5-3 7-3 3 0 5 1 7 3l68 68c4 4 4 10 0 14z"/>
<glyph glyph-name="magnifying-glass" unicode="&#100;" d="M291 459c-91 0-164-74-164-164 0-31 8-60 23-85l-79-79 0 0c-8-8-14-20-14-33 0-25 21-45 46-45 12 0 24 5 32 14l0-1 82 82c22-11 47-17 74-17 90 0 164 73 164 164 0 90-74 164-164 164z m1-263c-57 0-103 45-103 102 0 56 46 102 103 102 56 0 102-46 102-102 0-57-46-102-102-102z"/>
<glyph glyph-name="check-1" unicode="&#101;" d="M451 357l-66 66c-3 2-6 4-9 4-3 0-7-2-9-4l-176-176-46 47c-5 5-13 5-18 0l-66-66c-2-3-3-6-3-9 0-3 1-7 3-9l121-121c3-2 6-4 9-4 0 0 0 1 0 1 1 0 1-1 1-1 3 0 6 2 9 4l250 250c5 5 5 13 0 18z"/>
<glyph glyph-name="loop" unicode="&#102;" d="M429 391c0 3-2 6-5 7-2 1-5 1-8 0l-30-22-2-2c-33 33-78 53-128 53-68 0-127-37-158-93l0 0c-3-6-1-13 5-17 0 0 0 0 0 0l42-24c6-3 14-1 17 5 0 0 0 0 0 0 19 33 54 55 94 55 25 0 48-9 66-23l-5-4-30-21c-3-2-4-5-3-8 0-3 2-5 5-6l130-44c2-1 5-1 7 1 2 1 3 3 3 6z m-20-196c0 0 0 0 0 0l-42 24c-6 3-14 1-17-5 0 0 0 0 0 0-19-33-54-55-94-55-25 0-48 9-66 23l5 4 30 21c3 2 4 5 3 8 0 3-2 5-5 6l-130 44c-2 1-5 1-7-1-2-1-3-3-3-6l0-137c0-3 2-6 5-7 2-1 5-1 8 0l30 22 2 2c33-33 78-53 128-53 68 0 127 37 158 93l0 0c3 6 1 13-5 17z"/>
<glyph glyph-name="info" unicode="&#97;" d="M256 448c-106 0-192-86-192-192 0-106 86-192 192-192 106 0 192 86 192 192 0 106-86 192-192 192z m20-299c0-3-3-6-7-6l-26 0c-4 0-7 3-7 6l0 124c0 4 3 7 7 7l26 0c4 0 7-3 7-7z m-20 159c-13 0-23 10-23 23 0 13 10 23 23 23 13 0 23-10 23-23 0-13-10-23-23-23z"/>
<glyph glyph-name="pencil" unicode="&#98;" d="M455 362l-93 93c-5 5-14 5-20 0l-253-254 1 0-1 0-35-130 0 0c-2-4 0-10 3-14 5-4 11-5 16-2l0 0 128 34 0 0 0 0 254 254c5 5 5 14 0 19z m-359-265l21 76 56-56z"/>
<glyph glyph-name="plus" unicode="&#103;" d="M432 309l-123 0 0 123c0 5-5 10-10 10l-86 0c-5 0-10-5-10-10l0-123-123 0c-5 0-10-5-10-10l0-86c0-3 1-5 3-7 2-2 4-3 7-3l123 0 0-123c0-3 1-5 3-7 2-2 4-3 7-3l86 0c3 0 5 1 7 3 2 2 3 4 3 7l0 123 123 0c3 0 5 1 7 3 2 2 3 4 3 7l0 86c0 5-5 10-10 10z"/>
<glyph glyph-name="wrench" unicode="&#104;" d="M442 392l-20-20-19-19-25-24c-13-1-26 4-36 13-9 10-14 23-13 36l63 64c1 1 1 3 0 4 0 1 0 1-1 1l0 0c0 0 0 0 0 0 0 0 0 0 0 0-14 6-29 10-45 10-61 0-111-50-111-111 0-12 2-23 6-33l-116-116c-39-1-70-32-70-71 0-39 32-71 71-71 39 0 70 31 71 70l116 116c10-4 21-6 33-6 61 0 111 50 111 111 0 16-4 31-10 45 0 0 0 0 0 0 0 0 0 1 0 1l0 0c0 0-1 0-1 0-1 1-3 1-4 0z m-286-266c0-16-14-29-30-29-16 0-29 13-29 29 0 16 13 30 29 30 16 0 30-14 30-30z"/>
</font></defs></svg>
