{
  "src-folder": "Machinata.Server\\Machinata.Core",
  "destination": "Machinata.Product.CSDigitalWebsite\\Documentation",
  "clear-destination": false,
  "packages": [

    {
      "path": "\\Static\\js\\machinata-core-bundle.js",
      "extension": "js",
      "prefix": "machinata-"
    }
  ]
}