{
    "meta": {
        "bundle": "machinata-reporting-bundle.js",
        "link": "https://nerves.ch",
        "license": "Creative Commons Attribution-NonCommercial-ShareAlike 4.0 International (CC BY-NC-SA 4.0)",
        "credits": "Copyright {year} Dan Krusi / Nerves GmbH"
    },
    "files": [
        {
            "file": "machinata-uikit-reporting.js",
            "comment": "",
            "profiles": "js"
        }
        
    ]
}