{
    "meta": {
        "bundle": "machinata-twod-bundle.js",
        "link": "https://nerves.ch",
        "license": "Creative Commons Attribution-NonCommercial-ShareAlike 4.0 International (CC BY-NC-SA 4.0)",
        "credits": "Copyright {year} Dan Krusi"
    },
    "files": [
        {
            "file": "pdfkit.js",
            "comment": "",
            "profiles": "js"
        },
        {
            "file": "blob-stream.js",
            "comment": "",
            "profiles": "js"
        },
        {
            "file": "canvas2pdf.js",
            "comment": "",
            "profiles": "js"
        },
        {
            "file": "namespace.ts",
            "comment": "",
            "profiles": "js"
        },
        {
            "file": "machinata-twod-geometry.ts",
            "comment": "",
            "profiles": "js"
        },
        {
            "file": "machinata-twod-extensions.ts",
            "comment": "",
            "profiles": "js"
        },
        {
            "file": "machinata-twod-viewport.ts",
            "comment": "",
            "profiles": "js"
        },
        {
            "file": "machinata-twod-config.ts",
            "comment": "",
            "profiles": "js"
        },
        {
            "file": "machinata-twod-renderer.ts",
            "comment": "",
            "profiles": "js"
        },
        {
            "file": "machinata-twod-canvas.ts",
            "comment": "",
            "profiles": "js"
        },
        {
            "file": "machinata-twod-entity.ts",
            "comment": "",
            "profiles": "js"
        },
        {
            "file": "machinata-twod-entity-image.ts",
            "comment": "",
            "profiles": "js"
        },
        {
            "file": "machinata-twod-entity-shapes.ts",
            "comment": "",
            "profiles": "js"
        },
        {
            "file": "machinata-twod-entity-ruler.ts",
            "comment": "",
            "profiles": "js"
        },
        {
            "file": "machinata-twod-entity-measuringtape.ts",
            "comment": "",
            "profiles": "js"
        },
        {
            "file": "machinata-twod-entity-nature.ts",
            "comment": "",
            "profiles": "js"
        }
    ]
}