{
    "meta": {
        "bundle": "machinata-example-product-bundle.css",
        "link": "https://nerves.ch",
        "license": "Creative Commons Attribution-NonCommercial-ShareAlike 4.0 International (CC BY-NC-SA 4.0)",
        "credits": "Copyright {year} Nerves GmbH"
    },
    "files": [
        {
            "file": "machinata-example-product-vars.css",
            "comment": "",
            "profiles": "*"
        },
        {
            "file": "machinata-example-product-reset.css",
            "comment": "",
            "profiles": "*"
        },
        {
            "file": "machinata-example-product-html.css",
            "comment": "",
            "profiles": "*"
        },
        {
            "file": "machinata-example-product-navigation.css",
            "comment": "",
            "profiles": "*"
        },
        {
            "file": "machinata-example-product-logo.css",
            "comment": "",
            "profiles": "*"
        },
        {
            "file": "machinata-example-product-layout.css",
            "comment": "",
            "profiles": "*"
        },
        {
            "file": "machinata-example-product-navigation.css",
            "comment": "",
            "profiles": "*"
        }

    ]
}